<svg width="92" height="89" viewBox="0 0 92 89" fill="none" xmlns="http://www.w3.org/2000/svg">
<path d="M58.4054 20.0159H33.6154C33.0505 20.0165 32.5089 20.2393 32.1094 20.6351C31.71 21.031 31.4852 21.5678 31.4845 22.1276V76.7307L31.2004 76.8166L25.1191 78.6623C24.8308 78.7494 24.5195 78.7196 24.2535 78.5794C23.9874 78.4393 23.7883 78.2002 23.7 77.9147L5.61062 19.3556C5.52259 19.0699 5.5526 18.7614 5.69404 18.4976C5.83549 18.2339 6.0768 18.0366 6.36494 17.9492L15.7363 15.1053L42.9044 6.86382L52.2757 4.01998C52.4183 3.97648 52.5682 3.96128 52.7168 3.97524C52.8653 3.98921 53.0096 4.03208 53.1414 4.10138C53.2732 4.17069 53.39 4.26507 53.4849 4.37914C53.5799 4.4932 53.6512 4.62471 53.6949 4.76613L58.3187 19.7343L58.4054 20.0159Z" fill="#F2F2F2"/>
<path d="M63.8152 19.7348L58.2424 1.69473C58.1497 1.39415 57.9981 1.11462 57.7964 0.87212C57.5946 0.629616 57.3466 0.428891 57.0665 0.281414C56.7864 0.133937 56.4798 0.0425965 56.1641 0.0126167C55.8484 -0.0173631 55.5298 0.0146048 55.2266 0.10669L42.051 4.10355L14.8844 12.3465L1.70881 16.3447C1.09674 16.531 0.584249 16.9503 0.283823 17.5107C-0.0166039 18.071 -0.0804187 18.7266 0.106388 19.3336L19.1531 80.9871C19.3049 81.4771 19.6111 81.9059 20.0268 82.2107C20.4425 82.5155 20.9459 82.6803 21.463 82.6808C21.7023 82.6809 21.9403 82.6453 22.169 82.5752L31.2008 79.8355L31.4849 79.7482V79.454L31.2008 79.5399L22.0852 82.3063C21.5449 82.4695 20.9614 82.4137 20.4626 82.1511C19.9638 81.8885 19.5905 81.4405 19.4245 80.9055L0.379192 19.2505C0.296955 18.9854 0.268293 18.7068 0.294847 18.4307C0.321401 18.1546 0.402646 17.8864 0.533936 17.6415C0.665226 17.3965 0.843982 17.1797 1.05996 17.0033C1.27594 16.8269 1.52491 16.6945 1.7926 16.6136L14.9682 12.6154L42.1348 4.37386L55.3104 0.375591C55.5135 0.31418 55.7246 0.282869 55.9369 0.282673C56.3925 0.283686 56.8357 0.429251 57.2018 0.698045C57.5679 0.96684 57.8375 1.34474 57.9711 1.77639L63.5184 19.7348L63.6064 20.0164H63.9019L63.8152 19.7348Z" fill="#3F3D56"/>
<path d="M17.4274 17.995C17.1536 17.9948 16.8871 17.9077 16.6669 17.7464C16.4468 17.5851 16.2846 17.3581 16.2041 17.0987L14.3744 11.1757C14.3252 11.0166 14.3082 10.8494 14.3242 10.6838C14.3402 10.5181 14.389 10.3573 14.4678 10.2103C14.5465 10.0634 14.6537 9.93323 14.7833 9.82735C14.9128 9.72146 15.0621 9.64191 15.2226 9.59322L40.2157 2.01006C40.5399 1.91201 40.8901 1.94545 41.1895 2.10304C41.4889 2.26063 41.7129 2.5295 41.8125 2.85064L43.6422 8.77374C43.7411 9.09506 43.7073 9.44214 43.5483 9.73881C43.3893 10.0355 43.118 10.2575 42.794 10.3563L17.8009 17.9394C17.6799 17.9762 17.554 17.995 17.4274 17.995V17.995Z" fill="#F16E00"/>
<path d="M27.0122 6.32887C28.5813 6.32887 29.8533 5.06825 29.8533 3.51319C29.8533 1.95813 28.5813 0.69751 27.0122 0.69751C25.4431 0.69751 24.1711 1.95813 24.1711 3.51319C24.1711 5.06825 25.4431 6.32887 27.0122 6.32887Z" fill="#F16E00"/>
<path d="M27.0122 5.29618C28.0058 5.29618 28.8113 4.49791 28.8113 3.5132C28.8113 2.52849 28.0058 1.73022 27.0122 1.73022C26.0186 1.73022 25.2131 2.52849 25.2131 3.5132C25.2131 4.49791 26.0186 5.29618 27.0122 5.29618Z" fill="white"/>
<path d="M85.6076 81.9607H37.593C37.2728 81.9603 36.9659 81.8341 36.7396 81.6098C36.5132 81.3854 36.3859 81.0813 36.3855 80.764V23.7465C36.3859 23.4292 36.5132 23.125 36.7396 22.9007C36.9659 22.6763 37.2728 22.5502 37.593 22.5498H85.6076C85.9277 22.5502 86.2346 22.6764 86.461 22.9007C86.6873 23.125 86.8147 23.4292 86.815 23.7465V80.764C86.8147 81.0813 86.6873 81.3854 86.461 81.6098C86.2346 81.8341 85.9277 81.9603 85.6076 81.9607V81.9607Z" fill="#E6E6E6"/>
<path d="M63.518 19.7341H33.6154C32.9752 19.735 32.3615 19.9875 31.9088 20.4361C31.4561 20.8848 31.2013 21.493 31.2004 22.1275V79.5392L31.4845 79.4533V22.1275C31.4852 21.5676 31.71 21.0309 32.1094 20.635C32.5089 20.2391 33.0505 20.0164 33.6154 20.0157H63.6061L63.518 19.7341ZM89.5851 19.7341H33.6154C32.9752 19.735 32.3615 19.9875 31.9088 20.4361C31.4561 20.8848 31.2013 21.493 31.2004 22.1275V86.6066C31.2013 87.241 31.4561 87.8493 31.9088 88.2979C32.3615 88.7466 32.9752 88.999 33.6154 88.9999H89.5851C90.2253 88.999 90.839 88.7466 91.2917 88.2979C91.7444 87.8493 91.9991 87.241 92 86.6066V22.1275C91.9991 21.493 91.7444 20.8848 91.2917 20.4361C90.839 19.9875 90.2253 19.735 89.5851 19.7341V19.7341ZM91.7159 86.6066C91.7152 87.1664 91.4905 87.7032 91.091 88.0991C90.6916 88.4949 90.15 88.7177 89.5851 88.7183H33.6154C33.0505 88.7177 32.5089 88.4949 32.1094 88.0991C31.71 87.7032 31.4852 87.1664 31.4845 86.6066V22.1275C31.4852 21.5676 31.71 21.0309 32.1094 20.635C32.5089 20.2391 33.0505 20.0164 33.6154 20.0157H89.5851C90.15 20.0164 90.6916 20.2391 91.091 20.635C91.4905 21.0309 91.7152 21.5676 91.7159 22.1275V86.6066Z" fill="#3F3D56"/>
<path d="M74.6693 25.9288H48.5312C48.1922 25.9284 47.8672 25.7948 47.6276 25.5573C47.3879 25.3197 47.2531 24.9977 47.2527 24.6618V18.4673C47.2531 18.1313 47.3879 17.8093 47.6276 17.5717C47.8673 17.3342 48.1922 17.2006 48.5312 17.2002H74.6693C75.0083 17.2006 75.3332 17.3342 75.5729 17.5717C75.8126 17.8093 75.9474 18.1313 75.9478 18.4673V24.6618C75.9474 24.9977 75.8126 25.3197 75.5729 25.5573C75.3332 25.7948 75.0083 25.9284 74.6693 25.9288V25.9288Z" fill="#F16E00"/>
<path d="M61.6001 17.6223C63.1692 17.6223 64.4412 16.3617 64.4412 14.8066C64.4412 13.2516 63.1692 11.991 61.6001 11.991C60.031 11.991 58.759 13.2516 58.759 14.8066C58.759 16.3617 60.031 17.6223 61.6001 17.6223Z" fill="#F16E00"/>
<path d="M61.6004 16.5218C62.5561 16.5218 63.3309 15.754 63.3309 14.8068C63.3309 13.8596 62.5561 13.0918 61.6004 13.0918C60.6446 13.0918 59.8699 13.8596 59.8699 14.8068C59.8699 15.754 60.6446 16.5218 61.6004 16.5218Z" fill="white"/>
</svg>
